500kb RC2 Encrypt Memory Data:
Filename: rc2.py

Line #    Mem usage    Increment  Occurences   Line Contents
============================================================
    19     20.3 MiB     20.3 MiB           1   @profile
    20                                         def encrypt_profile(message):
    21     21.2 MiB      0.9 MiB           1       return rc2_encrypt(message)




500kb RC2 Decrypt Memory Data:
Filename: rc2.py

Line #    Mem usage    Increment  Occurences   Line Contents
============================================================
    23     21.2 MiB     21.2 MiB           1   @profile
    24                                         def decrypt_profile(message):
    25     21.7 MiB      0.5 MiB           1       return rc2_decrypt(message)




500kb RC2 Encryption cProfile Data:
         61 function calls in 0.090 seconds

   Ordered by: standard name

   ncalls  tottime  percall  cumtime  percall filename:lineno(function)
        1    0.000    0.000    0.090    0.090 <string>:1(<module>)
        1    0.000    0.000    0.000    0.000 ARC2.py:62(_create_base_cipher)
        1    0.000    0.000    0.000    0.000 ARC2.py:95(new)
        1    0.000    0.000    0.000    0.000 __init__.py:47(create_string_buffer)
        1    0.000    0.000    0.000    0.000 __init__.py:54(_create_cipher)
        1    0.089    0.089    0.090    0.090 _mode_cfb.py:124(encrypt)
        1    0.000    0.000    0.000    0.000 _mode_cfb.py:247(_create_cfb_cipher)
        1    0.000    0.000    0.000    0.000 _mode_cfb.py:74(__init__)
        1    0.000    0.000    0.000    0.000 _raw_api.py:185(get_raw_buffer)
        4    0.000    0.000    0.000    0.000 _raw_api.py:219(c_uint8_ptr)
        2    0.000    0.000    0.000    0.000 _raw_api.py:239(__init__)
        2    0.000    0.000    0.000    0.000 _raw_api.py:242(get)
        2    0.000    0.000    0.000    0.000 _raw_api.py:245(address_of)
        2    0.000    0.000    0.000    0.000 _raw_api.py:248(VoidPointer)
        2    0.000    0.000    0.000    0.000 _raw_api.py:258(__init__)
        2    0.000    0.000    0.000    0.000 _raw_api.py:262(get)
        1    0.000    0.000    0.000    0.000 _raw_api.py:265(release)
        1    0.000    0.000    0.000    0.000 _raw_api.py:269(__del__)
        4    0.000    0.000    0.000    0.000 py3compat.py:128(byte_string)
        1    0.000    0.000    0.000    0.000 py3compat.py:148(_copy_bytes)
        1    0.000    0.000    0.090    0.090 rc2.py:9(rc2_encrypt)
        2    0.000    0.000    0.000    0.000 {built-in method _ctypes.byref}
        1    0.000    0.000    0.000    0.000 {built-in method builtins.divmod}
        1    0.000    0.000    0.090    0.090 {built-in method builtins.exec}
        9    0.000    0.000    0.000    0.000 {built-in method builtins.isinstance}
        8    0.000    0.000    0.000    0.000 {built-in method builtins.len}
        1    0.000    0.000    0.000    0.000 {method 'disable' of '_lsprof.Profiler' objects}
        6    0.000    0.000    0.000    0.000 {method 'pop' of 'dict' objects}




500kb RC2 Decryption cProfile Data:
         61 function calls in 0.090 seconds

   Ordered by: standard name

   ncalls  tottime  percall  cumtime  percall filename:lineno(function)
        1    0.000    0.000    0.090    0.090 <string>:1(<module>)
        1    0.000    0.000    0.000    0.000 ARC2.py:62(_create_base_cipher)
        1    0.000    0.000    0.000    0.000 ARC2.py:95(new)
        1    0.000    0.000    0.000    0.000 __init__.py:47(create_string_buffer)
        1    0.000    0.000    0.000    0.000 __init__.py:54(_create_cipher)
        1    0.090    0.090    0.090    0.090 _mode_cfb.py:185(decrypt)
        1    0.000    0.000    0.000    0.000 _mode_cfb.py:247(_create_cfb_cipher)
        1    0.000    0.000    0.000    0.000 _mode_cfb.py:74(__init__)
        1    0.000    0.000    0.000    0.000 _raw_api.py:185(get_raw_buffer)
        4    0.000    0.000    0.000    0.000 _raw_api.py:219(c_uint8_ptr)
        2    0.000    0.000    0.000    0.000 _raw_api.py:239(__init__)
        2    0.000    0.000    0.000    0.000 _raw_api.py:242(get)
        2    0.000    0.000    0.000    0.000 _raw_api.py:245(address_of)
        2    0.000    0.000    0.000    0.000 _raw_api.py:248(VoidPointer)
        2    0.000    0.000    0.000    0.000 _raw_api.py:258(__init__)
        2    0.000    0.000    0.000    0.000 _raw_api.py:262(get)
        1    0.000    0.000    0.000    0.000 _raw_api.py:265(release)
        1    0.000    0.000    0.000    0.000 _raw_api.py:269(__del__)
        4    0.000    0.000    0.000    0.000 py3compat.py:128(byte_string)
        1    0.000    0.000    0.000    0.000 py3compat.py:148(_copy_bytes)
        1    0.000    0.000    0.090    0.090 rc2.py:14(rc2_decrypt)
        2    0.000    0.000    0.000    0.000 {built-in method _ctypes.byref}
        1    0.000    0.000    0.000    0.000 {built-in method builtins.divmod}
        1    0.000    0.000    0.090    0.090 {built-in method builtins.exec}
        9    0.000    0.000    0.000    0.000 {built-in method builtins.isinstance}
        8    0.000    0.000    0.000    0.000 {built-in method builtins.len}
        1    0.000    0.000    0.000    0.000 {method 'disable' of '_lsprof.Profiler' objects}
        6    0.000    0.000    0.000    0.000 {method 'pop' of 'dict' objects}


